^D:\PERFORCEPROJECTS\C23\STUDENTS\RCSTEWART\PROJECTS\ENGINE\2D\COMPONENTS\COMPONENT.CPP
D:\PERFORCEPROJECTS\C23\STUDENTS\RCSTEWART\PROJECTS\DFS 1\TEMPORARY\ENGINE_WIN32__RELEASE\VC120.PDB
^D:\PERFORCEPROJECTS\C23\STUDENTS\RCSTEWART\PROJECTS\ENGINE\2D\COMPONENTS\CONTROLLERCOMPONENT.CPP
D:\PERFORCEPROJECTS\C23\STUDENTS\RCSTEWART\PROJECTS\DFS 1\TEMPORARY\ENGINE_WIN32__RELEASE\VC120.PDB
^D:\PERFORCEPROJECTS\C23\STUDENTS\RCSTEWART\PROJECTS\ENGINE\2D\COMPONENTS\CORE2D.CPP
D:\PERFORCEPROJECTS\C23\STUDENTS\RCSTEWART\PROJECTS\DFS 1\TEMPORARY\ENGINE_WIN32__RELEASE\VC120.PDB
^D:\PERFORCEPROJECTS\C23\STUDENTS\RCSTEWART\PROJECTS\ENGINE\2D\COMPONENTS\PHYSICS2D.CPP
D:\PERFORCEPROJECTS\C23\STUDENTS\RCSTEWART\PROJECTS\DFS 1\TEMPORARY\ENGINE_WIN32__RELEASE\VC120.PDB
^D:\PERFORCEPROJECTS\C23\STUDENTS\RCSTEWART\PROJECTS\ENGINE\2D\COMPONENTS\RENDER2D.CPP
D:\PERFORCEPROJECTS\C23\STUDENTS\RCSTEWART\PROJECTS\DFS 1\TEMPORARY\ENGINE_WIN32__RELEASE\VC120.PDB
^D:\PERFORCEPROJECTS\C23\STUDENTS\RCSTEWART\PROJECTS\ENGINE\2D\COMPONENTS\TIMECOMPONENT.CPP
D:\PERFORCEPROJECTS\C23\STUDENTS\RCSTEWART\PROJECTS\DFS 1\TEMPORARY\ENGINE_WIN32__RELEASE\VC120.PDB
^D:\PERFORCEPROJECTS\C23\STUDENTS\RCSTEWART\PROJECTS\ENGINE\2D\GAMEENTITY2D.CPP
D:\PERFORCEPROJECTS\C23\STUDENTS\RCSTEWART\PROJECTS\DFS 1\TEMPORARY\ENGINE_WIN32__RELEASE\VC120.PDB
^D:\PERFORCEPROJECTS\C23\STUDENTS\RCSTEWART\PROJECTS\ENGINE\AUDIO\AUDIO.CPP
D:\PERFORCEPROJECTS\C23\STUDENTS\RCSTEWART\PROJECTS\DFS 1\TEMPORARY\ENGINE_WIN32__RELEASE\VC120.PDB
^D:\PERFORCEPROJECTS\C23\STUDENTS\RCSTEWART\PROJECTS\ENGINE\COMMANDLETS\COMMANDLET.CPP
D:\PERFORCEPROJECTS\C23\STUDENTS\RCSTEWART\PROJECTS\DFS 1\TEMPORARY\ENGINE_WIN32__RELEASE\VC120.PDB
^D:\PERFORCEPROJECTS\C23\STUDENTS\RCSTEWART\PROJECTS\ENGINE\COMMANDLETS\COMMANDLETMANAGER.CPP
D:\PERFORCEPROJECTS\C23\STUDENTS\RCSTEWART\PROJECTS\DFS 1\TEMPORARY\ENGINE_WIN32__RELEASE\VC120.PDB
^D:\PERFORCEPROJECTS\C23\STUDENTS\RCSTEWART\PROJECTS\ENGINE\CORE\ANYDATATYPEMAP.CPP
D:\PERFORCEPROJECTS\C23\STUDENTS\RCSTEWART\PROJECTS\DFS 1\TEMPORARY\ENGINE_WIN32__RELEASE\VC120.PDB
^D:\PERFORCEPROJECTS\C23\STUDENTS\RCSTEWART\PROJECTS\ENGINE\CORE\CAMERA3D.CPP
D:\PERFORCEPROJECTS\C23\STUDENTS\RCSTEWART\PROJECTS\DFS 1\TEMPORARY\ENGINE_WIN32__RELEASE\VC120.PDB
^D:\PERFORCEPROJECTS\C23\STUDENTS\RCSTEWART\PROJECTS\ENGINE\CORE\ENGINECOMMON.CPP
D:\PERFORCEPROJECTS\C23\STUDENTS\RCSTEWART\PROJECTS\DFS 1\TEMPORARY\ENGINE_WIN32__RELEASE\VC120.PDB
^D:\PERFORCEPROJECTS\C23\STUDENTS\RCSTEWART\PROJECTS\ENGINE\CORE\GAMECOMMON.CPP
D:\PERFORCEPROJECTS\C23\STUDENTS\RCSTEWART\PROJECTS\DFS 1\TEMPORARY\ENGINE_WIN32__RELEASE\VC120.PDB
^D:\PERFORCEPROJECTS\C23\STUDENTS\RCSTEWART\PROJECTS\ENGINE\CORE\RGBACOLORS.CPP
D:\PERFORCEPROJECTS\C23\STUDENTS\RCSTEWART\PROJECTS\DFS 1\TEMPORARY\ENGINE_WIN32__RELEASE\VC120.PDB
^D:\PERFORCEPROJECTS\C23\STUDENTS\RCSTEWART\PROJECTS\ENGINE\CORE\STRINGTABLE.CPP
D:\PERFORCEPROJECTS\C23\STUDENTS\RCSTEWART\PROJECTS\DFS 1\TEMPORARY\ENGINE_WIN32__RELEASE\VC120.PDB
^D:\PERFORCEPROJECTS\C23\STUDENTS\RCSTEWART\PROJECTS\ENGINE\CORE\TEXTURE.CPP
D:\PERFORCEPROJECTS\C23\STUDENTS\RCSTEWART\PROJECTS\DFS 1\TEMPORARY\ENGINE_WIN32__RELEASE\VC120.PDB
^D:\PERFORCEPROJECTS\C23\STUDENTS\RCSTEWART\PROJECTS\ENGINE\CORE\UTILITYFUNCTIONS.CPP
D:\PERFORCEPROJECTS\C23\STUDENTS\RCSTEWART\PROJECTS\DFS 1\TEMPORARY\ENGINE_WIN32__RELEASE\VC120.PDB
^D:\PERFORCEPROJECTS\C23\STUDENTS\RCSTEWART\PROJECTS\ENGINE\CORE\WINDOWSWRAPPER.CPP
D:\PERFORCEPROJECTS\C23\STUDENTS\RCSTEWART\PROJECTS\DFS 1\TEMPORARY\ENGINE_WIN32__RELEASE\VC120.PDB
^D:\PERFORCEPROJECTS\C23\STUDENTS\RCSTEWART\PROJECTS\ENGINE\FILES\FILEPARSER.CPP
D:\PERFORCEPROJECTS\C23\STUDENTS\RCSTEWART\PROJECTS\DFS 1\TEMPORARY\ENGINE_WIN32__RELEASE\VC120.PDB
^D:\PERFORCEPROJECTS\C23\STUDENTS\RCSTEWART\PROJECTS\ENGINE\FILES\FILESYSTEM.CPP
D:\PERFORCEPROJECTS\C23\STUDENTS\RCSTEWART\PROJECTS\DFS 1\TEMPORARY\ENGINE_WIN32__RELEASE\VC120.PDB
^D:\PERFORCEPROJECTS\C23\STUDENTS\RCSTEWART\PROJECTS\ENGINE\FILES\OBJANDC23CONVERTER.CPP
D:\PERFORCEPROJECTS\C23\STUDENTS\RCSTEWART\PROJECTS\DFS 1\TEMPORARY\ENGINE_WIN32__RELEASE\VC120.PDB
^D:\PERFORCEPROJECTS\C23\STUDENTS\RCSTEWART\PROJECTS\ENGINE\FONT\FONTGENERATOR.CPP
D:\PERFORCEPROJECTS\C23\STUDENTS\RCSTEWART\PROJECTS\DFS 1\TEMPORARY\ENGINE_WIN32__RELEASE\VC120.PDB
^D:\PERFORCEPROJECTS\C23\STUDENTS\RCSTEWART\PROJECTS\ENGINE\INPUT\CONSOLELOG.CPP
D:\PERFORCEPROJECTS\C23\STUDENTS\RCSTEWART\PROJECTS\DFS 1\TEMPORARY\ENGINE_WIN32__RELEASE\VC120.PDB
^D:\PERFORCEPROJECTS\C23\STUDENTS\RCSTEWART\PROJECTS\ENGINE\LANGUAGE\NOUN.CPP
D:\PERFORCEPROJECTS\C23\STUDENTS\RCSTEWART\PROJECTS\DFS 1\TEMPORARY\ENGINE_WIN32__RELEASE\VC120.PDB
^D:\PERFORCEPROJECTS\C23\STUDENTS\RCSTEWART\PROJECTS\ENGINE\LANGUAGE\NOUNFACTORY.CPP
D:\PERFORCEPROJECTS\C23\STUDENTS\RCSTEWART\PROJECTS\DFS 1\TEMPORARY\ENGINE_WIN32__RELEASE\VC120.PDB
^D:\PERFORCEPROJECTS\C23\STUDENTS\RCSTEWART\PROJECTS\ENGINE\LANGUAGE\TRIGGER.CPP
D:\PERFORCEPROJECTS\C23\STUDENTS\RCSTEWART\PROJECTS\DFS 1\TEMPORARY\ENGINE_WIN32__RELEASE\VC120.PDB
^D:\PERFORCEPROJECTS\C23\STUDENTS\RCSTEWART\PROJECTS\ENGINE\LANGUAGE\VERB.CPP
D:\PERFORCEPROJECTS\C23\STUDENTS\RCSTEWART\PROJECTS\DFS 1\TEMPORARY\ENGINE_WIN32__RELEASE\VC120.PDB
^D:\PERFORCEPROJECTS\C23\STUDENTS\RCSTEWART\PROJECTS\ENGINE\LIBRARIES\TINYXML\TINYSTR.CPP
D:\PERFORCEPROJECTS\C23\STUDENTS\RCSTEWART\PROJECTS\DFS 1\TEMPORARY\ENGINE_WIN32__RELEASE\VC120.PDB
^D:\PERFORCEPROJECTS\C23\STUDENTS\RCSTEWART\PROJECTS\ENGINE\LIBRARIES\TINYXML\TINYXML.CPP
D:\PERFORCEPROJECTS\C23\STUDENTS\RCSTEWART\PROJECTS\DFS 1\TEMPORARY\ENGINE_WIN32__RELEASE\VC120.PDB
^D:\PERFORCEPROJECTS\C23\STUDENTS\RCSTEWART\PROJECTS\ENGINE\LIBRARIES\TINYXML\TINYXMLERROR.CPP
D:\PERFORCEPROJECTS\C23\STUDENTS\RCSTEWART\PROJECTS\DFS 1\TEMPORARY\ENGINE_WIN32__RELEASE\VC120.PDB
^D:\PERFORCEPROJECTS\C23\STUDENTS\RCSTEWART\PROJECTS\ENGINE\LIBRARIES\TINYXML\TINYXMLPARSER.CPP
D:\PERFORCEPROJECTS\C23\STUDENTS\RCSTEWART\PROJECTS\DFS 1\TEMPORARY\ENGINE_WIN32__RELEASE\VC120.PDB
^D:\PERFORCEPROJECTS\C23\STUDENTS\RCSTEWART\PROJECTS\ENGINE\MATH\AABB.CPP
D:\PERFORCEPROJECTS\C23\STUDENTS\RCSTEWART\PROJECTS\DFS 1\TEMPORARY\ENGINE_WIN32__RELEASE\VC120.PDB
^D:\PERFORCEPROJECTS\C23\STUDENTS\RCSTEWART\PROJECTS\ENGINE\MATH\EULERANGLES.CPP
D:\PERFORCEPROJECTS\C23\STUDENTS\RCSTEWART\PROJECTS\DFS 1\TEMPORARY\ENGINE_WIN32__RELEASE\VC120.PDB
^D:\PERFORCEPROJECTS\C23\STUDENTS\RCSTEWART\PROJECTS\ENGINE\MATH\INTVEC2.CPP
D:\PERFORCEPROJECTS\C23\STUDENTS\RCSTEWART\PROJECTS\DFS 1\TEMPORARY\ENGINE_WIN32__RELEASE\VC120.PDB
^D:\PERFORCEPROJECTS\C23\STUDENTS\RCSTEWART\PROJECTS\ENGINE\MATH\MATRIX_4X4.CPP
D:\PERFORCEPROJECTS\C23\STUDENTS\RCSTEWART\PROJECTS\DFS 1\TEMPORARY\ENGINE_WIN32__RELEASE\VC120.PDB
^D:\PERFORCEPROJECTS\C23\STUDENTS\RCSTEWART\PROJECTS\ENGINE\MATH\NOISE.CPP
D:\PERFORCEPROJECTS\C23\STUDENTS\RCSTEWART\PROJECTS\DFS 1\TEMPORARY\ENGINE_WIN32__RELEASE\VC120.PDB
^D:\PERFORCEPROJECTS\C23\STUDENTS\RCSTEWART\PROJECTS\ENGINE\MATH\RANDOMNUMBER.CPP
D:\PERFORCEPROJECTS\C23\STUDENTS\RCSTEWART\PROJECTS\DFS 1\TEMPORARY\ENGINE_WIN32__RELEASE\VC120.PDB
^D:\PERFORCEPROJECTS\C23\STUDENTS\RCSTEWART\PROJECTS\ENGINE\MATH\TIME.CPP
D:\PERFORCEPROJECTS\C23\STUDENTS\RCSTEWART\PROJECTS\DFS 1\TEMPORARY\ENGINE_WIN32__RELEASE\VC120.PDB
^D:\PERFORCEPROJECTS\C23\STUDENTS\RCSTEWART\PROJECTS\ENGINE\MATH\VEC2.CPP
D:\PERFORCEPROJECTS\C23\STUDENTS\RCSTEWART\PROJECTS\DFS 1\TEMPORARY\ENGINE_WIN32__RELEASE\VC120.PDB
^D:\PERFORCEPROJECTS\C23\STUDENTS\RCSTEWART\PROJECTS\ENGINE\MATH\VEC3.CPP
D:\PERFORCEPROJECTS\C23\STUDENTS\RCSTEWART\PROJECTS\DFS 1\TEMPORARY\ENGINE_WIN32__RELEASE\VC120.PDB
^D:\PERFORCEPROJECTS\C23\STUDENTS\RCSTEWART\PROJECTS\ENGINE\RENDERER\DRAWDEBUG.CPP
D:\PERFORCEPROJECTS\C23\STUDENTS\RCSTEWART\PROJECTS\DFS 1\TEMPORARY\ENGINE_WIN32__RELEASE\VC120.PDB
^D:\PERFORCEPROJECTS\C23\STUDENTS\RCSTEWART\PROJECTS\ENGINE\RENDERER\FBO.CPP
D:\PERFORCEPROJECTS\C23\STUDENTS\RCSTEWART\PROJECTS\DFS 1\TEMPORARY\ENGINE_WIN32__RELEASE\VC120.PDB
^D:\PERFORCEPROJECTS\C23\STUDENTS\RCSTEWART\PROJECTS\ENGINE\RENDERER\GLWRAPPER.CPP
D:\PERFORCEPROJECTS\C23\STUDENTS\RCSTEWART\PROJECTS\DFS 1\TEMPORARY\ENGINE_WIN32__RELEASE\VC120.PDB
^D:\PERFORCEPROJECTS\C23\STUDENTS\RCSTEWART\PROJECTS\ENGINE\RENDERER\LIGHT.CPP
D:\PERFORCEPROJECTS\C23\STUDENTS\RCSTEWART\PROJECTS\DFS 1\TEMPORARY\ENGINE_WIN32__RELEASE\VC120.PDB
^D:\PERFORCEPROJECTS\C23\STUDENTS\RCSTEWART\PROJECTS\ENGINE\RENDERER\MATERIAL.CPP
D:\PERFORCEPROJECTS\C23\STUDENTS\RCSTEWART\PROJECTS\DFS 1\TEMPORARY\ENGINE_WIN32__RELEASE\VC120.PDB
^D:\PERFORCEPROJECTS\C23\STUDENTS\RCSTEWART\PROJECTS\ENGINE\RENDERER\MESH.CPP
D:\PERFORCEPROJECTS\C23\STUDENTS\RCSTEWART\PROJECTS\DFS 1\TEMPORARY\ENGINE_WIN32__RELEASE\VC120.PDB
^D:\PERFORCEPROJECTS\C23\STUDENTS\RCSTEWART\PROJECTS\ENGINE\RENDERER\MESHVERTEXDATA.CPP
D:\PERFORCEPROJECTS\C23\STUDENTS\RCSTEWART\PROJECTS\DFS 1\TEMPORARY\ENGINE_WIN32__RELEASE\VC120.PDB
^D:\PERFORCEPROJECTS\C23\STUDENTS\RCSTEWART\PROJECTS\ENGINE\RENDERER\RENDERER.CPP
D:\PERFORCEPROJECTS\C23\STUDENTS\RCSTEWART\PROJECTS\DFS 1\TEMPORARY\ENGINE_WIN32__RELEASE\VC120.PDB
^D:\PERFORCEPROJECTS\C23\STUDENTS\RCSTEWART\PROJECTS\ENGINE\RENDERER\SHADER.CPP
D:\PERFORCEPROJECTS\C23\STUDENTS\RCSTEWART\PROJECTS\DFS 1\TEMPORARY\ENGINE_WIN32__RELEASE\VC120.PDB
^D:\PERFORCEPROJECTS\C23\STUDENTS\RCSTEWART\PROJECTS\ENGINE\RENDERER\SHADERPROGRAM.CPP
D:\PERFORCEPROJECTS\C23\STUDENTS\RCSTEWART\PROJECTS\DFS 1\TEMPORARY\ENGINE_WIN32__RELEASE\VC120.PDB
^D:\PERFORCEPROJECTS\C23\STUDENTS\RCSTEWART\PROJECTS\ENGINE\RENDERER\SPRITESHEET.CPP
D:\PERFORCEPROJECTS\C23\STUDENTS\RCSTEWART\PROJECTS\DFS 1\TEMPORARY\ENGINE_WIN32__RELEASE\VC120.PDB
^D:\PERFORCEPROJECTS\C23\STUDENTS\RCSTEWART\PROJECTS\ENGINE\TIME\ALARM.CPP
D:\PERFORCEPROJECTS\C23\STUDENTS\RCSTEWART\PROJECTS\DFS 1\TEMPORARY\ENGINE_WIN32__RELEASE\VC120.PDB
^D:\PERFORCEPROJECTS\C23\STUDENTS\RCSTEWART\PROJECTS\ENGINE\TIME\CLOCK.CPP
D:\PERFORCEPROJECTS\C23\STUDENTS\RCSTEWART\PROJECTS\DFS 1\TEMPORARY\ENGINE_WIN32__RELEASE\VC120.PDB
^D:\PERFORCEPROJECTS\C23\STUDENTS\RCSTEWART\PROJECTS\ENGINE\TIME\PROFILER.CPP
D:\PERFORCEPROJECTS\C23\STUDENTS\RCSTEWART\PROJECTS\DFS 1\TEMPORARY\ENGINE_WIN32__RELEASE\VC120.PDB
^D:\PERFORCEPROJECTS\C23\STUDENTS\RCSTEWART\PROJECTS\ENGINE\TIME\UTILITIESTIME.CPP
D:\PERFORCEPROJECTS\C23\STUDENTS\RCSTEWART\PROJECTS\DFS 1\TEMPORARY\ENGINE_WIN32__RELEASE\VC120.PDB
^D:\PERFORCEPROJECTS\C23\STUDENTS\RCSTEWART\PROJECTS\ENGINE\ZIP\UNZIP.CPP
D:\PERFORCEPROJECTS\C23\STUDENTS\RCSTEWART\PROJECTS\DFS 1\TEMPORARY\ENGINE_WIN32__RELEASE\VC120.PDB
^D:\PERFORCEPROJECTS\C23\STUDENTS\RCSTEWART\PROJECTS\ENGINE\ZIP\ZIP.CPP
D:\PERFORCEPROJECTS\C23\STUDENTS\RCSTEWART\PROJECTS\DFS 1\TEMPORARY\ENGINE_WIN32__RELEASE\VC120.PDB
^D:\PERFORCEPROJECTS\C23\STUDENTS\RCSTEWART\PROJECTS\ENGINE\CORE\STB_IMAGE.C
D:\PERFORCEPROJECTS\C23\STUDENTS\RCSTEWART\PROJECTS\DFS 1\TEMPORARY\ENGINE_WIN32__RELEASE\VC120.PDB
D:\PERFORCEPROJECTS\C23\STUDENTS\RCSTEWART\PROJECTS\DFS 1\TEMPORARY\ENGINE_WIN32__RELEASE\STB_IMAGE.OBJ
^D:\NEURAL NET\NEURALNETWITHGENETICALGORITHM\ENGINE\2D\COMPONENTS\COMPONENT.CPP|D:\NEURAL NET\NEURALNETWITHGENETICALGORITHM\ENGINE\2D\COMPONENTS\CONTROLLERCOMPONENT.CPP|D:\NEURAL NET\NEURALNETWITHGENETICALGORITHM\ENGINE\2D\COMPONENTS\CORE2D.CPP|D:\NEURAL NET\NEURALNETWITHGENETICALGORITHM\ENGINE\2D\COMPONENTS\PHYSICS2D.CPP|D:\NEURAL NET\NEURALNETWITHGENETICALGORITHM\ENGINE\2D\COMPONENTS\RENDER2D.CPP|D:\NEURAL NET\NEURALNETWITHGENETICALGORITHM\ENGINE\2D\COMPONENTS\TIMECOMPONENT.CPP|D:\NEURAL NET\NEURALNETWITHGENETICALGORITHM\ENGINE\2D\GAMEENTITY2D.CPP|D:\NEURAL NET\NEURALNETWITHGENETICALGORITHM\ENGINE\AUDIO\AUDIO.CPP|D:\NEURAL NET\NEURALNETWITHGENETICALGORITHM\ENGINE\COMMANDLETS\COMMANDLET.CPP|D:\NEURAL NET\NEURALNETWITHGENETICALGORITHM\ENGINE\COMMANDLETS\COMMANDLETMANAGER.CPP|D:\NEURAL NET\NEURALNETWITHGENETICALGORITHM\ENGINE\CORE\ANYDATATYPEMAP.CPP|D:\NEURAL NET\NEURALNETWITHGENETICALGORITHM\ENGINE\CORE\CAMERA3D.CPP|D:\NEURAL NET\NEURALNETWITHGENETICALGORITHM\ENGINE\CORE\ENGINECOMMON.CPP|D:\NEURAL NET\NEURALNETWITHGENETICALGORITHM\ENGINE\CORE\GAMECOMMON.CPP|D:\NEURAL NET\NEURALNETWITHGENETICALGORITHM\ENGINE\CORE\RGBACOLORS.CPP|D:\NEURAL NET\NEURALNETWITHGENETICALGORITHM\ENGINE\CORE\STRINGTABLE.CPP|D:\NEURAL NET\NEURALNETWITHGENETICALGORITHM\ENGINE\CORE\TEXTURE.CPP|D:\NEURAL NET\NEURALNETWITHGENETICALGORITHM\ENGINE\CORE\UTILITYFUNCTIONS.CPP|D:\NEURAL NET\NEURALNETWITHGENETICALGORITHM\ENGINE\CORE\WINDOWSWRAPPER.CPP|D:\NEURAL NET\NEURALNETWITHGENETICALGORITHM\ENGINE\FILES\FILEPARSER.CPP|D:\NEURAL NET\NEURALNETWITHGENETICALGORITHM\ENGINE\FILES\FILESYSTEM.CPP|D:\NEURAL NET\NEURALNETWITHGENETICALGORITHM\ENGINE\FILES\OBJANDC23CONVERTER.CPP|D:\NEURAL NET\NEURALNETWITHGENETICALGORITHM\ENGINE\FONT\FONTGENERATOR.CPP|D:\NEURAL NET\NEURALNETWITHGENETICALGORITHM\ENGINE\INPUT\CONSOLELOG.CPP|D:\NEURAL NET\NEURALNETWITHGENETICALGORITHM\ENGINE\LANGUAGE\NOUN.CPP|D:\NEURAL NET\NEURALNETWITHGENETICALGORITHM\ENGINE\LANGUAGE\NOUNFACTORY.CPP|D:\NEURAL NET\NEURALNETWITHGENETICALGORITHM\ENGINE\LANGUAGE\TRIGGER.CPP|D:\NEURAL NET\NEURALNETWITHGENETICALGORITHM\ENGINE\LANGUAGE\VERB.CPP|D:\NEURAL NET\NEURALNETWITHGENETICALGORITHM\ENGINE\LIBRARIES\TINYXML\TINYSTR.CPP|D:\NEURAL NET\NEURALNETWITHGENETICALGORITHM\ENGINE\LIBRARIES\TINYXML\TINYXML.CPP|D:\NEURAL NET\NEURALNETWITHGENETICALGORITHM\ENGINE\LIBRARIES\TINYXML\TINYXMLERROR.CPP|D:\NEURAL NET\NEURALNETWITHGENETICALGORITHM\ENGINE\LIBRARIES\TINYXML\TINYXMLPARSER.CPP|D:\NEURAL NET\NEURALNETWITHGENETICALGORITHM\ENGINE\MATH\AABB.CPP|D:\NEURAL NET\NEURALNETWITHGENETICALGORITHM\ENGINE\MATH\EULERANGLES.CPP|D:\NEURAL NET\NEURALNETWITHGENETICALGORITHM\ENGINE\MATH\INTVEC2.CPP|D:\NEURAL NET\NEURALNETWITHGENETICALGORITHM\ENGINE\MATH\MATRIX_4X4.CPP|D:\NEURAL NET\NEURALNETWITHGENETICALGORITHM\ENGINE\MATH\NOISE.CPP|D:\NEURAL NET\NEURALNETWITHGENETICALGORITHM\ENGINE\MATH\RANDOMNUMBER.CPP|D:\NEURAL NET\NEURALNETWITHGENETICALGORITHM\ENGINE\MATH\TIME.CPP|D:\NEURAL NET\NEURALNETWITHGENETICALGORITHM\ENGINE\MATH\VEC2.CPP|D:\NEURAL NET\NEURALNETWITHGENETICALGORITHM\ENGINE\MATH\VEC3.CPP|D:\NEURAL NET\NEURALNETWITHGENETICALGORITHM\ENGINE\RENDERER\DRAWDEBUG.CPP|D:\NEURAL NET\NEURALNETWITHGENETICALGORITHM\ENGINE\RENDERER\FBO.CPP|D:\NEURAL NET\NEURALNETWITHGENETICALGORITHM\ENGINE\RENDERER\GLWRAPPER.CPP|D:\NEURAL NET\NEURALNETWITHGENETICALGORITHM\ENGINE\RENDERER\LIGHT.CPP|D:\NEURAL NET\NEURALNETWITHGENETICALGORITHM\ENGINE\RENDERER\MATERIAL.CPP|D:\NEURAL NET\NEURALNETWITHGENETICALGORITHM\ENGINE\RENDERER\MESH.CPP|D:\NEURAL NET\NEURALNETWITHGENETICALGORITHM\ENGINE\RENDERER\MESHVERTEXDATA.CPP|D:\NEURAL NET\NEURALNETWITHGENETICALGORITHM\ENGINE\RENDERER\RENDERER.CPP|D:\NEURAL NET\NEURALNETWITHGENETICALGORITHM\ENGINE\RENDERER\SHADER.CPP|D:\NEURAL NET\NEURALNETWITHGENETICALGORITHM\ENGINE\RENDERER\SHADERPROGRAM.CPP|D:\NEURAL NET\NEURALNETWITHGENETICALGORITHM\ENGINE\RENDERER\SPRITESHEET.CPP|D:\NEURAL NET\NEURALNETWITHGENETICALGORITHM\ENGINE\TIME\ALARM.CPP|D:\NEURAL NET\NEURALNETWITHGENETICALGORITHM\ENGINE\TIME\CLOCK.CPP|D:\NEURAL NET\NEURALNETWITHGENETICALGORITHM\ENGINE\TIME\PROFILER.CPP|D:\NEURAL NET\NEURALNETWITHGENETICALGORITHM\ENGINE\TIME\UTILITIESTIME.CPP|D:\NEURAL NET\NEURALNETWITHGENETICALGORITHM\ENGINE\ZIP\UNZIP.CPP|D:\NEURAL NET\NEURALNETWITHGENETICALGORITHM\ENGINE\ZIP\ZIP.CPP
D:\NEURAL NET\NEURALNETWITHGENETICALGORITHM\NEURAL NET\TEMPORARY\ENGINE_WIN32__RELEASE\AUDIO.OBJ
D:\NEURAL NET\NEURALNETWITHGENETICALGORITHM\NEURAL NET\TEMPORARY\ENGINE_WIN32__RELEASE\COMMANDLET.OBJ
D:\NEURAL NET\NEURALNETWITHGENETICALGORITHM\NEURAL NET\TEMPORARY\ENGINE_WIN32__RELEASE\WINDOWSWRAPPER.OBJ
D:\NEURAL NET\NEURALNETWITHGENETICALGORITHM\NEURAL NET\TEMPORARY\ENGINE_WIN32__RELEASE\TINYXML.OBJ
D:\NEURAL NET\NEURALNETWITHGENETICALGORITHM\NEURAL NET\TEMPORARY\ENGINE_WIN32__RELEASE\AABB.OBJ
D:\NEURAL NET\NEURALNETWITHGENETICALGORITHM\NEURAL NET\TEMPORARY\ENGINE_WIN32__RELEASE\MATRIX_4X4.OBJ
D:\NEURAL NET\NEURALNETWITHGENETICALGORITHM\NEURAL NET\TEMPORARY\ENGINE_WIN32__RELEASE\FBO.OBJ
D:\NEURAL NET\NEURALNETWITHGENETICALGORITHM\NEURAL NET\TEMPORARY\ENGINE_WIN32__RELEASE\RENDERER.OBJ
D:\NEURAL NET\NEURALNETWITHGENETICALGORITHM\NEURAL NET\TEMPORARY\ENGINE_WIN32__RELEASE\PHYSICS2D.OBJ
D:\NEURAL NET\NEURALNETWITHGENETICALGORITHM\NEURAL NET\TEMPORARY\ENGINE_WIN32__RELEASE\RGBACOLORS.OBJ
D:\NEURAL NET\NEURALNETWITHGENETICALGORITHM\NEURAL NET\TEMPORARY\ENGINE_WIN32__RELEASE\STRINGTABLE.OBJ
D:\NEURAL NET\NEURALNETWITHGENETICALGORITHM\NEURAL NET\TEMPORARY\ENGINE_WIN32__RELEASE\FONTGENERATOR.OBJ
D:\NEURAL NET\NEURALNETWITHGENETICALGORITHM\NEURAL NET\TEMPORARY\ENGINE_WIN32__RELEASE\LIGHT.OBJ
D:\NEURAL NET\NEURALNETWITHGENETICALGORITHM\NEURAL NET\TEMPORARY\ENGINE_WIN32__RELEASE\CLOCK.OBJ
D:\NEURAL NET\NEURALNETWITHGENETICALGORITHM\NEURAL NET\TEMPORARY\ENGINE_WIN32__RELEASE\RENDER2D.OBJ
D:\NEURAL NET\NEURALNETWITHGENETICALGORITHM\NEURAL NET\TEMPORARY\ENGINE_WIN32__RELEASE\GAMECOMMON.OBJ
D:\NEURAL NET\NEURALNETWITHGENETICALGORITHM\NEURAL NET\TEMPORARY\ENGINE_WIN32__RELEASE\CONSOLELOG.OBJ
D:\NEURAL NET\NEURALNETWITHGENETICALGORITHM\NEURAL NET\TEMPORARY\ENGINE_WIN32__RELEASE\GLWRAPPER.OBJ
D:\NEURAL NET\NEURALNETWITHGENETICALGORITHM\NEURAL NET\TEMPORARY\ENGINE_WIN32__RELEASE\UNZIP.OBJ
D:\NEURAL NET\NEURALNETWITHGENETICALGORITHM\NEURAL NET\TEMPORARY\ENGINE_WIN32__RELEASE\GAMEENTITY2D.OBJ
D:\NEURAL NET\NEURALNETWITHGENETICALGORITHM\NEURAL NET\TEMPORARY\ENGINE_WIN32__RELEASE\COMMANDLETMANAGER.OBJ
D:\NEURAL NET\NEURALNETWITHGENETICALGORITHM\NEURAL NET\TEMPORARY\ENGINE_WIN32__RELEASE\FILEPARSER.OBJ
D:\NEURAL NET\NEURALNETWITHGENETICALGORITHM\NEURAL NET\TEMPORARY\ENGINE_WIN32__RELEASE\TINYSTR.OBJ
D:\NEURAL NET\NEURALNETWITHGENETICALGORITHM\NEURAL NET\TEMPORARY\ENGINE_WIN32__RELEASE\TINYXMLERROR.OBJ
D:\NEURAL NET\NEURALNETWITHGENETICALGORITHM\NEURAL NET\TEMPORARY\ENGINE_WIN32__RELEASE\TINYXMLPARSER.OBJ
D:\NEURAL NET\NEURALNETWITHGENETICALGORITHM\NEURAL NET\TEMPORARY\ENGINE_WIN32__RELEASE\RANDOMNUMBER.OBJ
D:\NEURAL NET\NEURALNETWITHGENETICALGORITHM\NEURAL NET\TEMPORARY\ENGINE_WIN32__RELEASE\VEC2.OBJ
D:\NEURAL NET\NEURALNETWITHGENETICALGORITHM\NEURAL NET\TEMPORARY\ENGINE_WIN32__RELEASE\VEC3.OBJ
D:\NEURAL NET\NEURALNETWITHGENETICALGORITHM\NEURAL NET\TEMPORARY\ENGINE_WIN32__RELEASE\DRAWDEBUG.OBJ
D:\NEURAL NET\NEURALNETWITHGENETICALGORITHM\NEURAL NET\TEMPORARY\ENGINE_WIN32__RELEASE\SHADERPROGRAM.OBJ
D:\NEURAL NET\NEURALNETWITHGENETICALGORITHM\NEURAL NET\TEMPORARY\ENGINE_WIN32__RELEASE\SPRITESHEET.OBJ
D:\NEURAL NET\NEURALNETWITHGENETICALGORITHM\NEURAL NET\TEMPORARY\ENGINE_WIN32__RELEASE\CORE2D.OBJ
D:\NEURAL NET\NEURALNETWITHGENETICALGORITHM\NEURAL NET\TEMPORARY\ENGINE_WIN32__RELEASE\ANYDATATYPEMAP.OBJ
D:\NEURAL NET\NEURALNETWITHGENETICALGORITHM\NEURAL NET\TEMPORARY\ENGINE_WIN32__RELEASE\TEXTURE.OBJ
D:\NEURAL NET\NEURALNETWITHGENETICALGORITHM\NEURAL NET\TEMPORARY\ENGINE_WIN32__RELEASE\NOUNFACTORY.OBJ
D:\NEURAL NET\NEURALNETWITHGENETICALGORITHM\NEURAL NET\TEMPORARY\ENGINE_WIN32__RELEASE\TRIGGER.OBJ
D:\NEURAL NET\NEURALNETWITHGENETICALGORITHM\NEURAL NET\TEMPORARY\ENGINE_WIN32__RELEASE\MESH.OBJ
D:\NEURAL NET\NEURALNETWITHGENETICALGORITHM\NEURAL NET\TEMPORARY\ENGINE_WIN32__RELEASE\UTILITIESTIME.OBJ
D:\NEURAL NET\NEURALNETWITHGENETICALGORITHM\NEURAL NET\TEMPORARY\ENGINE_WIN32__RELEASE\CONTROLLERCOMPONENT.OBJ
D:\NEURAL NET\NEURALNETWITHGENETICALGORITHM\NEURAL NET\TEMPORARY\ENGINE_WIN32__RELEASE\ENGINECOMMON.OBJ
D:\NEURAL NET\NEURALNETWITHGENETICALGORITHM\NEURAL NET\TEMPORARY\ENGINE_WIN32__RELEASE\FILESYSTEM.OBJ
D:\NEURAL NET\NEURALNETWITHGENETICALGORITHM\NEURAL NET\TEMPORARY\ENGINE_WIN32__RELEASE\EULERANGLES.OBJ
D:\NEURAL NET\NEURALNETWITHGENETICALGORITHM\NEURAL NET\TEMPORARY\ENGINE_WIN32__RELEASE\INTVEC2.OBJ
D:\NEURAL NET\NEURALNETWITHGENETICALGORITHM\NEURAL NET\TEMPORARY\ENGINE_WIN32__RELEASE\NOISE.OBJ
D:\NEURAL NET\NEURALNETWITHGENETICALGORITHM\NEURAL NET\TEMPORARY\ENGINE_WIN32__RELEASE\TIME.OBJ
D:\NEURAL NET\NEURALNETWITHGENETICALGORITHM\NEURAL NET\TEMPORARY\ENGINE_WIN32__RELEASE\MESHVERTEXDATA.OBJ
D:\NEURAL NET\NEURALNETWITHGENETICALGORITHM\NEURAL NET\TEMPORARY\ENGINE_WIN32__RELEASE\ALARM.OBJ
D:\NEURAL NET\NEURALNETWITHGENETICALGORITHM\NEURAL NET\TEMPORARY\ENGINE_WIN32__RELEASE\COMPONENT.OBJ
D:\NEURAL NET\NEURALNETWITHGENETICALGORITHM\NEURAL NET\TEMPORARY\ENGINE_WIN32__RELEASE\CAMERA3D.OBJ
D:\NEURAL NET\NEURALNETWITHGENETICALGORITHM\NEURAL NET\TEMPORARY\ENGINE_WIN32__RELEASE\OBJANDC23CONVERTER.OBJ
D:\NEURAL NET\NEURALNETWITHGENETICALGORITHM\NEURAL NET\TEMPORARY\ENGINE_WIN32__RELEASE\VERB.OBJ
D:\NEURAL NET\NEURALNETWITHGENETICALGORITHM\NEURAL NET\TEMPORARY\ENGINE_WIN32__RELEASE\MATERIAL.OBJ
D:\NEURAL NET\NEURALNETWITHGENETICALGORITHM\NEURAL NET\TEMPORARY\ENGINE_WIN32__RELEASE\PROFILER.OBJ
D:\NEURAL NET\NEURALNETWITHGENETICALGORITHM\NEURAL NET\TEMPORARY\ENGINE_WIN32__RELEASE\TIMECOMPONENT.OBJ
D:\NEURAL NET\NEURALNETWITHGENETICALGORITHM\NEURAL NET\TEMPORARY\ENGINE_WIN32__RELEASE\UTILITYFUNCTIONS.OBJ
D:\NEURAL NET\NEURALNETWITHGENETICALGORITHM\NEURAL NET\TEMPORARY\ENGINE_WIN32__RELEASE\NOUN.OBJ
D:\NEURAL NET\NEURALNETWITHGENETICALGORITHM\NEURAL NET\TEMPORARY\ENGINE_WIN32__RELEASE\SHADER.OBJ
D:\NEURAL NET\NEURALNETWITHGENETICALGORITHM\NEURAL NET\TEMPORARY\ENGINE_WIN32__RELEASE\ZIP.OBJ
^D:\NEURAL NET\NEURALNETWITHGENETICALGORITHM\ENGINE\2D\COMPONENTS\COMPONENT.CPP
D:\NEURAL NET\NEURALNETWITHGENETICALGORITHM\NEURAL NET\TEMPORARY\ENGINE_WIN32__RELEASE\VC120.PDB
^D:\NEURAL NET\NEURALNETWITHGENETICALGORITHM\ENGINE\2D\COMPONENTS\CONTROLLERCOMPONENT.CPP
D:\NEURAL NET\NEURALNETWITHGENETICALGORITHM\NEURAL NET\TEMPORARY\ENGINE_WIN32__RELEASE\VC120.PDB
^D:\NEURAL NET\NEURALNETWITHGENETICALGORITHM\ENGINE\2D\COMPONENTS\CORE2D.CPP
D:\NEURAL NET\NEURALNETWITHGENETICALGORITHM\NEURAL NET\TEMPORARY\ENGINE_WIN32__RELEASE\VC120.PDB
^D:\NEURAL NET\NEURALNETWITHGENETICALGORITHM\ENGINE\2D\COMPONENTS\PHYSICS2D.CPP
D:\NEURAL NET\NEURALNETWITHGENETICALGORITHM\NEURAL NET\TEMPORARY\ENGINE_WIN32__RELEASE\VC120.PDB
^D:\NEURAL NET\NEURALNETWITHGENETICALGORITHM\ENGINE\2D\COMPONENTS\RENDER2D.CPP
D:\NEURAL NET\NEURALNETWITHGENETICALGORITHM\NEURAL NET\TEMPORARY\ENGINE_WIN32__RELEASE\VC120.PDB
^D:\NEURAL NET\NEURALNETWITHGENETICALGORITHM\ENGINE\2D\COMPONENTS\TIMECOMPONENT.CPP
D:\NEURAL NET\NEURALNETWITHGENETICALGORITHM\NEURAL NET\TEMPORARY\ENGINE_WIN32__RELEASE\VC120.PDB
^D:\NEURAL NET\NEURALNETWITHGENETICALGORITHM\ENGINE\2D\GAMEENTITY2D.CPP
D:\NEURAL NET\NEURALNETWITHGENETICALGORITHM\NEURAL NET\TEMPORARY\ENGINE_WIN32__RELEASE\VC120.PDB
^D:\NEURAL NET\NEURALNETWITHGENETICALGORITHM\ENGINE\AUDIO\AUDIO.CPP
D:\NEURAL NET\NEURALNETWITHGENETICALGORITHM\NEURAL NET\TEMPORARY\ENGINE_WIN32__RELEASE\VC120.PDB
^D:\NEURAL NET\NEURALNETWITHGENETICALGORITHM\ENGINE\COMMANDLETS\COMMANDLET.CPP
D:\NEURAL NET\NEURALNETWITHGENETICALGORITHM\NEURAL NET\TEMPORARY\ENGINE_WIN32__RELEASE\VC120.PDB
^D:\NEURAL NET\NEURALNETWITHGENETICALGORITHM\ENGINE\COMMANDLETS\COMMANDLETMANAGER.CPP
D:\NEURAL NET\NEURALNETWITHGENETICALGORITHM\NEURAL NET\TEMPORARY\ENGINE_WIN32__RELEASE\VC120.PDB
^D:\NEURAL NET\NEURALNETWITHGENETICALGORITHM\ENGINE\CORE\ANYDATATYPEMAP.CPP
D:\NEURAL NET\NEURALNETWITHGENETICALGORITHM\NEURAL NET\TEMPORARY\ENGINE_WIN32__RELEASE\VC120.PDB
^D:\NEURAL NET\NEURALNETWITHGENETICALGORITHM\ENGINE\CORE\CAMERA3D.CPP
D:\NEURAL NET\NEURALNETWITHGENETICALGORITHM\NEURAL NET\TEMPORARY\ENGINE_WIN32__RELEASE\VC120.PDB
^D:\NEURAL NET\NEURALNETWITHGENETICALGORITHM\ENGINE\CORE\ENGINECOMMON.CPP
D:\NEURAL NET\NEURALNETWITHGENETICALGORITHM\NEURAL NET\TEMPORARY\ENGINE_WIN32__RELEASE\VC120.PDB
^D:\NEURAL NET\NEURALNETWITHGENETICALGORITHM\ENGINE\CORE\GAMECOMMON.CPP
D:\NEURAL NET\NEURALNETWITHGENETICALGORITHM\NEURAL NET\TEMPORARY\ENGINE_WIN32__RELEASE\VC120.PDB
^D:\NEURAL NET\NEURALNETWITHGENETICALGORITHM\ENGINE\CORE\RGBACOLORS.CPP
D:\NEURAL NET\NEURALNETWITHGENETICALGORITHM\NEURAL NET\TEMPORARY\ENGINE_WIN32__RELEASE\VC120.PDB
^D:\NEURAL NET\NEURALNETWITHGENETICALGORITHM\ENGINE\CORE\STRINGTABLE.CPP
D:\NEURAL NET\NEURALNETWITHGENETICALGORITHM\NEURAL NET\TEMPORARY\ENGINE_WIN32__RELEASE\VC120.PDB
^D:\NEURAL NET\NEURALNETWITHGENETICALGORITHM\ENGINE\CORE\TEXTURE.CPP
D:\NEURAL NET\NEURALNETWITHGENETICALGORITHM\NEURAL NET\TEMPORARY\ENGINE_WIN32__RELEASE\VC120.PDB
^D:\NEURAL NET\NEURALNETWITHGENETICALGORITHM\ENGINE\CORE\UTILITYFUNCTIONS.CPP
D:\NEURAL NET\NEURALNETWITHGENETICALGORITHM\NEURAL NET\TEMPORARY\ENGINE_WIN32__RELEASE\VC120.PDB
^D:\NEURAL NET\NEURALNETWITHGENETICALGORITHM\ENGINE\CORE\WINDOWSWRAPPER.CPP
D:\NEURAL NET\NEURALNETWITHGENETICALGORITHM\NEURAL NET\TEMPORARY\ENGINE_WIN32__RELEASE\VC120.PDB
^D:\NEURAL NET\NEURALNETWITHGENETICALGORITHM\ENGINE\FILES\FILEPARSER.CPP
D:\NEURAL NET\NEURALNETWITHGENETICALGORITHM\NEURAL NET\TEMPORARY\ENGINE_WIN32__RELEASE\VC120.PDB
^D:\NEURAL NET\NEURALNETWITHGENETICALGORITHM\ENGINE\FILES\FILESYSTEM.CPP
D:\NEURAL NET\NEURALNETWITHGENETICALGORITHM\NEURAL NET\TEMPORARY\ENGINE_WIN32__RELEASE\VC120.PDB
^D:\NEURAL NET\NEURALNETWITHGENETICALGORITHM\ENGINE\FILES\OBJANDC23CONVERTER.CPP
D:\NEURAL NET\NEURALNETWITHGENETICALGORITHM\NEURAL NET\TEMPORARY\ENGINE_WIN32__RELEASE\VC120.PDB
^D:\NEURAL NET\NEURALNETWITHGENETICALGORITHM\ENGINE\FONT\FONTGENERATOR.CPP
D:\NEURAL NET\NEURALNETWITHGENETICALGORITHM\NEURAL NET\TEMPORARY\ENGINE_WIN32__RELEASE\VC120.PDB
^D:\NEURAL NET\NEURALNETWITHGENETICALGORITHM\ENGINE\INPUT\CONSOLELOG.CPP
D:\NEURAL NET\NEURALNETWITHGENETICALGORITHM\NEURAL NET\TEMPORARY\ENGINE_WIN32__RELEASE\VC120.PDB
^D:\NEURAL NET\NEURALNETWITHGENETICALGORITHM\ENGINE\LANGUAGE\NOUN.CPP
D:\NEURAL NET\NEURALNETWITHGENETICALGORITHM\NEURAL NET\TEMPORARY\ENGINE_WIN32__RELEASE\VC120.PDB
^D:\NEURAL NET\NEURALNETWITHGENETICALGORITHM\ENGINE\LANGUAGE\NOUNFACTORY.CPP
D:\NEURAL NET\NEURALNETWITHGENETICALGORITHM\NEURAL NET\TEMPORARY\ENGINE_WIN32__RELEASE\VC120.PDB
^D:\NEURAL NET\NEURALNETWITHGENETICALGORITHM\ENGINE\LANGUAGE\TRIGGER.CPP
D:\NEURAL NET\NEURALNETWITHGENETICALGORITHM\NEURAL NET\TEMPORARY\ENGINE_WIN32__RELEASE\VC120.PDB
^D:\NEURAL NET\NEURALNETWITHGENETICALGORITHM\ENGINE\LANGUAGE\VERB.CPP
D:\NEURAL NET\NEURALNETWITHGENETICALGORITHM\NEURAL NET\TEMPORARY\ENGINE_WIN32__RELEASE\VC120.PDB
^D:\NEURAL NET\NEURALNETWITHGENETICALGORITHM\ENGINE\LIBRARIES\TINYXML\TINYSTR.CPP
D:\NEURAL NET\NEURALNETWITHGENETICALGORITHM\NEURAL NET\TEMPORARY\ENGINE_WIN32__RELEASE\VC120.PDB
^D:\NEURAL NET\NEURALNETWITHGENETICALGORITHM\ENGINE\LIBRARIES\TINYXML\TINYXML.CPP
D:\NEURAL NET\NEURALNETWITHGENETICALGORITHM\NEURAL NET\TEMPORARY\ENGINE_WIN32__RELEASE\VC120.PDB
^D:\NEURAL NET\NEURALNETWITHGENETICALGORITHM\ENGINE\LIBRARIES\TINYXML\TINYXMLERROR.CPP
D:\NEURAL NET\NEURALNETWITHGENETICALGORITHM\NEURAL NET\TEMPORARY\ENGINE_WIN32__RELEASE\VC120.PDB
^D:\NEURAL NET\NEURALNETWITHGENETICALGORITHM\ENGINE\LIBRARIES\TINYXML\TINYXMLPARSER.CPP
D:\NEURAL NET\NEURALNETWITHGENETICALGORITHM\NEURAL NET\TEMPORARY\ENGINE_WIN32__RELEASE\VC120.PDB
^D:\NEURAL NET\NEURALNETWITHGENETICALGORITHM\ENGINE\MATH\AABB.CPP
D:\NEURAL NET\NEURALNETWITHGENETICALGORITHM\NEURAL NET\TEMPORARY\ENGINE_WIN32__RELEASE\VC120.PDB
^D:\NEURAL NET\NEURALNETWITHGENETICALGORITHM\ENGINE\MATH\EULERANGLES.CPP
D:\NEURAL NET\NEURALNETWITHGENETICALGORITHM\NEURAL NET\TEMPORARY\ENGINE_WIN32__RELEASE\VC120.PDB
^D:\NEURAL NET\NEURALNETWITHGENETICALGORITHM\ENGINE\MATH\INTVEC2.CPP
D:\NEURAL NET\NEURALNETWITHGENETICALGORITHM\NEURAL NET\TEMPORARY\ENGINE_WIN32__RELEASE\VC120.PDB
^D:\NEURAL NET\NEURALNETWITHGENETICALGORITHM\ENGINE\MATH\MATRIX_4X4.CPP
D:\NEURAL NET\NEURALNETWITHGENETICALGORITHM\NEURAL NET\TEMPORARY\ENGINE_WIN32__RELEASE\VC120.PDB
^D:\NEURAL NET\NEURALNETWITHGENETICALGORITHM\ENGINE\MATH\NOISE.CPP
D:\NEURAL NET\NEURALNETWITHGENETICALGORITHM\NEURAL NET\TEMPORARY\ENGINE_WIN32__RELEASE\VC120.PDB
^D:\NEURAL NET\NEURALNETWITHGENETICALGORITHM\ENGINE\MATH\RANDOMNUMBER.CPP
D:\NEURAL NET\NEURALNETWITHGENETICALGORITHM\NEURAL NET\TEMPORARY\ENGINE_WIN32__RELEASE\VC120.PDB
^D:\NEURAL NET\NEURALNETWITHGENETICALGORITHM\ENGINE\MATH\TIME.CPP
D:\NEURAL NET\NEURALNETWITHGENETICALGORITHM\NEURAL NET\TEMPORARY\ENGINE_WIN32__RELEASE\VC120.PDB
^D:\NEURAL NET\NEURALNETWITHGENETICALGORITHM\ENGINE\MATH\VEC2.CPP
D:\NEURAL NET\NEURALNETWITHGENETICALGORITHM\NEURAL NET\TEMPORARY\ENGINE_WIN32__RELEASE\VC120.PDB
^D:\NEURAL NET\NEURALNETWITHGENETICALGORITHM\ENGINE\MATH\VEC3.CPP
D:\NEURAL NET\NEURALNETWITHGENETICALGORITHM\NEURAL NET\TEMPORARY\ENGINE_WIN32__RELEASE\VC120.PDB
^D:\NEURAL NET\NEURALNETWITHGENETICALGORITHM\ENGINE\RENDERER\DRAWDEBUG.CPP
D:\NEURAL NET\NEURALNETWITHGENETICALGORITHM\NEURAL NET\TEMPORARY\ENGINE_WIN32__RELEASE\VC120.PDB
^D:\NEURAL NET\NEURALNETWITHGENETICALGORITHM\ENGINE\RENDERER\FBO.CPP
D:\NEURAL NET\NEURALNETWITHGENETICALGORITHM\NEURAL NET\TEMPORARY\ENGINE_WIN32__RELEASE\VC120.PDB
^D:\NEURAL NET\NEURALNETWITHGENETICALGORITHM\ENGINE\RENDERER\GLWRAPPER.CPP
D:\NEURAL NET\NEURALNETWITHGENETICALGORITHM\NEURAL NET\TEMPORARY\ENGINE_WIN32__RELEASE\VC120.PDB
^D:\NEURAL NET\NEURALNETWITHGENETICALGORITHM\ENGINE\RENDERER\LIGHT.CPP
D:\NEURAL NET\NEURALNETWITHGENETICALGORITHM\NEURAL NET\TEMPORARY\ENGINE_WIN32__RELEASE\VC120.PDB
^D:\NEURAL NET\NEURALNETWITHGENETICALGORITHM\ENGINE\RENDERER\MATERIAL.CPP
D:\NEURAL NET\NEURALNETWITHGENETICALGORITHM\NEURAL NET\TEMPORARY\ENGINE_WIN32__RELEASE\VC120.PDB
^D:\NEURAL NET\NEURALNETWITHGENETICALGORITHM\ENGINE\RENDERER\MESH.CPP
D:\NEURAL NET\NEURALNETWITHGENETICALGORITHM\NEURAL NET\TEMPORARY\ENGINE_WIN32__RELEASE\VC120.PDB
^D:\NEURAL NET\NEURALNETWITHGENETICALGORITHM\ENGINE\RENDERER\MESHVERTEXDATA.CPP
D:\NEURAL NET\NEURALNETWITHGENETICALGORITHM\NEURAL NET\TEMPORARY\ENGINE_WIN32__RELEASE\VC120.PDB
^D:\NEURAL NET\NEURALNETWITHGENETICALGORITHM\ENGINE\RENDERER\RENDERER.CPP
D:\NEURAL NET\NEURALNETWITHGENETICALGORITHM\NEURAL NET\TEMPORARY\ENGINE_WIN32__RELEASE\VC120.PDB
^D:\NEURAL NET\NEURALNETWITHGENETICALGORITHM\ENGINE\RENDERER\SHADER.CPP
D:\NEURAL NET\NEURALNETWITHGENETICALGORITHM\NEURAL NET\TEMPORARY\ENGINE_WIN32__RELEASE\VC120.PDB
^D:\NEURAL NET\NEURALNETWITHGENETICALGORITHM\ENGINE\RENDERER\SHADERPROGRAM.CPP
D:\NEURAL NET\NEURALNETWITHGENETICALGORITHM\NEURAL NET\TEMPORARY\ENGINE_WIN32__RELEASE\VC120.PDB
^D:\NEURAL NET\NEURALNETWITHGENETICALGORITHM\ENGINE\RENDERER\SPRITESHEET.CPP
D:\NEURAL NET\NEURALNETWITHGENETICALGORITHM\NEURAL NET\TEMPORARY\ENGINE_WIN32__RELEASE\VC120.PDB
^D:\NEURAL NET\NEURALNETWITHGENETICALGORITHM\ENGINE\TIME\ALARM.CPP
D:\NEURAL NET\NEURALNETWITHGENETICALGORITHM\NEURAL NET\TEMPORARY\ENGINE_WIN32__RELEASE\VC120.PDB
^D:\NEURAL NET\NEURALNETWITHGENETICALGORITHM\ENGINE\TIME\CLOCK.CPP
D:\NEURAL NET\NEURALNETWITHGENETICALGORITHM\NEURAL NET\TEMPORARY\ENGINE_WIN32__RELEASE\VC120.PDB
^D:\NEURAL NET\NEURALNETWITHGENETICALGORITHM\ENGINE\TIME\PROFILER.CPP
D:\NEURAL NET\NEURALNETWITHGENETICALGORITHM\NEURAL NET\TEMPORARY\ENGINE_WIN32__RELEASE\VC120.PDB
^D:\NEURAL NET\NEURALNETWITHGENETICALGORITHM\ENGINE\TIME\UTILITIESTIME.CPP
D:\NEURAL NET\NEURALNETWITHGENETICALGORITHM\NEURAL NET\TEMPORARY\ENGINE_WIN32__RELEASE\VC120.PDB
^D:\NEURAL NET\NEURALNETWITHGENETICALGORITHM\ENGINE\ZIP\UNZIP.CPP
D:\NEURAL NET\NEURALNETWITHGENETICALGORITHM\NEURAL NET\TEMPORARY\ENGINE_WIN32__RELEASE\VC120.PDB
^D:\NEURAL NET\NEURALNETWITHGENETICALGORITHM\ENGINE\ZIP\ZIP.CPP
D:\NEURAL NET\NEURALNETWITHGENETICALGORITHM\NEURAL NET\TEMPORARY\ENGINE_WIN32__RELEASE\VC120.PDB
^D:\NEURAL NET\NEURALNETWITHGENETICALGORITHM\ENGINE\CORE\STB_IMAGE.C
D:\NEURAL NET\NEURALNETWITHGENETICALGORITHM\NEURAL NET\TEMPORARY\ENGINE_WIN32__RELEASE\VC120.PDB
D:\NEURAL NET\NEURALNETWITHGENETICALGORITHM\NEURAL NET\TEMPORARY\ENGINE_WIN32__RELEASE\STB_IMAGE.OBJ
